Tidy Tuesday: Numbat observations in Australia
…
numbats %>% 
  count(year)

# A tibble: 26 × 2
    year     n
   <dbl> <int>
 1  1856     2
 2  1902     1
 3  1906     1
 4  1954     1
 5  1968     4
 6  1969     3
 7  1985     1
 8  2000     1
 9  2006     7
10  2007     2
# … with 16 more rows
…
