Tidy Tuesday - 2022 week 49 - Elevators
…
elevator_approval_filter_func <- function(data, yearinput) {
  data_filtered <- data %>%
  filter(!is.na(DV_APPROVAL_DATE)) %>% 
  mutate(date_approval = as_date((DV_APPROVAL_DATE))) %>% 
  select(date_approval, LONGITUDE, LATITUDE) %>% 
  filter(year(date_approval) == yearinput)
  
  return(data_filtered)
}

# Test the function
elevator_approval_filter_func(elevators, 2014)

# A tibble: 1,162 × 3
   date_approval LONGITUDE LATITUDE
   <date>            <dbl>    <dbl>
 1 2014-10-03        -74.0     40.7
 2 2014-05-28        -74.0     40.7
 3 2014-10-09        -74.0     40.8
 4 2014-06-06        -74.0     40.7
 5 2014-05-05        -74.0     40.7
 6 2014-04-08        -74.0     40.8
 7 2014-05-07        -73.9     40.8
 8 2014-01-17        -74.0     40.7
 9 2014-10-29        -74.0     40.8
10 2014-01-18        -74.0     40.8
# … with 1,152 more rows
…
